[
    {
        "description":"Authentication",
        "blocks":[
            {
                "text": "HTTP Login",
                "info":"Provide your login credentials. <code>machineID</code> can be anything.",
                "code":"$.post('http://xxx.xxx.xxx.xxx/?json=true',{machineID: \"fMUVxYdG1X3hWb7GNkTd\", mail: \"ccio@m03.ca\", pass: \"123\", function: \"dash\"},function(d){<br>     console.log(d.$user)<br>})",
                "list":[
                    "<b>mail : </b> Address used to login.",
                    "<b>pass : </b> Password associated to the account being used to login.",
                    "<b>ke : </b> Group Key, this can be found in Settings.",
                    "<b>machineID : </b> The unique string used to identify a machine when using 2-Factor Authentication."
                ]
            },
            {
                "text": "2-Factor Authentication",
                "info":"If you have 2-Factor Authentication enabled you will need to pass a second gate. <code>machineID</code> must be the same as the one used at the first gate.",
                "code":"$.post('http://xxx.xxx.xxx.xxx/?json=true',{ke: \"2Df5hBE\", id: \"XDf5hB3\", machineID: \"fMUVxYdG1X3hWb7GNkTd\", factorAuthKey: \"123456\"},function(d){<br>     console.log(d.$user)<br>})",
                "list":[
                    "<b>id : </b> User ID, this can be found after login.",
                    "<b>factorAuthKey : </b> The key you will receive to pass the verification for your account."
                ]
            }
        ]
    },
    {
        "description":"Get Streams",
        "blocks":[
            {
                "text":"<b>Get a Monitor object</b> and it will have a set of stream links already pre-built in the <code>streams</code> variable.",
                "code":"http://xxx.xxx.xxx.xxx/[API KEY]/monitor/[GROUP KEY]/[MONITOR ID]"
            },
            {
                "text":"<b>JPEG Snapshot.</b> Snapshot must be enabled in Monitor Settings.",
                "code":"http://xxx.xxx.xxx.xxx/[API KEY]/jpeg/[GROUP KEY]/[MONITOR ID]/s.jpg"
            },
            {
                "text":"<b>MJPEG Stream.</b> Stream type must be MJPEG.",
                "code":"http://xxx.xxx.xxx.xxx/[API KEY]/mjpeg/[GROUP KEY]/[MONITOR ID]"
            },
            {
                "text":"<b>MJPEG for iframe.</b>",
                "code":"http://xxx.xxx.xxx.xxx/[API KEY]/mjpeg/[GROUP KEY]/[MONITOR ID]?full=true"
            },
            {
                "text":"<b>m3u8 for HLS Stream.</b> Stream type must be HLS.",
                "code":"http://xxx.xxx.xxx.xxx/[API KEY]/hls/[GROUP KEY]/[MONITOR ID]/s.m3u8"
            },
            {
                "text":"<b>FLV Stream.</b> Stream type must be FLV.",
                "code":"http://xxx.xxx.xxx.xxx/[API KEY]/flv/[GROUP KEY]/[MONITOR ID]/s.flv"
            },
            {
                "text":"<b>Poseidon (MP4) Stream.</b> Stream type must be Poesidon.",
                "code":"http://xxx.xxx.xxx.xxx/[API KEY]/mp4/[GROUP KEY]/[MONITOR ID]/s.mp4"
            },
            {
                "text":"<b>Stream Channels</b>",
                "info":"Below is the link for a Poseidon stream but on a channel aside from the Main one. You can create Stream Channels by opening your Monitor Settings, clicking Options, and then selecting Add Channel.",
                "code":"http://xxx.xxx.xxx.xxx/[API KEY]/mp4/[GROUP KEY]/[MONITOR ID]/[CHANNEL]/s.mp4"
            }
        ]
    },
    {
        "description":"Getting Monitors",
        "blocks":[
            {
                "text":"Get all saved monitors",
                "code":"http://xxx.xxx.xxx.xxx/[API KEY]/monitor/[GROUP KEY]"
            },
            {
                "text":"Get a single monitor by ID",
                "code":"http://xxx.xxx.xxx.xxx/[API KEY]/monitor/[GROUP KEY]/[MONITOR ID]"
            },
            {
                "text":"Get all available h.264 streams in an .m3u8 playlist.",
                "info":"Enable the TV Channel option in your monitor's settings to see their streams in this list.",
                "code":"http://xxx.xxx.xxx.xxx/[API KEY]/tvChannels/[GROUP KEY]"
            },
            {
                "text":"Get a single monitor's available h.264 streams in an .m3u8 playlist.",
                "info":"Enable the TV Channel option in your monitor's settings to see their streams in this list.",
                "code":"http://xxx.xxx.xxx.xxx/[API KEY]/tvChannels/[GROUP KEY]"
            }
        ]
    },
    {
        "description":"Getting Videos",
        "blocks":[
            {
                "text":"Get videos for group key",
                "code":"http://xxx.xxx.xxx.xxx/[API KEY]/videos/[GROUP KEY]"
            },
            {
                "text":"Get videos for monitor ID",
                "code":"http://xxx.xxx.xxx.xxx/[API KEY]/videos/[GROUP KEY]/[MONITOR ID]"
            },
            {
                "text":"Get video file",
                "code":"http://xxx.xxx.xxx.xxx/[API KEY]/videos/[GROUP KEY]/[MONITOR ID]/[FILENAME]"
            },
            {
                "text":"Get video files after start time",
                "code":"http://xxx.xxx.xxx.xxx/[API KEY]/videos/[GROUP KEY]/[MONITOR ID]?start=YYYY-MM-DDTHH:mm:ss"
            },
            {
                "text":"Get video files before end time",
                "code":"http://xxx.xxx.xxx.xxx/[API KEY]/videos/[GROUP KEY]/[MONITOR ID]?end=YYYY-MM-DDTHH:mm:ss"
            },
            {
                "text":"Get video files between start time and end time",
                "code":"http://xxx.xxx.xxx.xxx/[API KEY]/videos/[GROUP KEY]/[MONITOR ID]?start=YYYY-MM-DDTHH:mm:ss&end=YYYY-MM-DDTHH:mm:ss"
            },
            {
                "text":"Get video files with custom start operator",
                "code":"http://xxx.xxx.xxx.xxx/[API KEY]/videos/[GROUP KEY]/[MONITOR ID]?start=YYYY-MM-DDTHH:mm:ss&startOperator=>="
            },
            {
                "text":"Get video files with custom end operator",
                "code":"http://xxx.xxx.xxx.xxx/[API KEY]/videos/[GROUP KEY]/[MONITOR ID]?end=YYYY-MM-DDTHH:mm:ss&endOperator=<="
            },
            {
                "text":"Get video files with time restrictions as <b>startFrom</b> and <b>startTo</b>",
                "info":"Normally the end parameter correlates directly to the end time of the video. This way you are searching only with start times.",
                "code":"http://xxx.xxx.xxx.xxx/[API KEY]/videos/[GROUP KEY]/[MONITOR ID]?start=YYYY-MM-DDTHH:mm:ss&end=YYYY-MM-DDTHH:mm:ss&endIsStartTo"
            },
            {
                "text":"Get Cloud Videos for group key",
                "info":"<code>videos</code> is interchangeable with <code>cloudVideos</code>. All the methods above this one can use the <code>cloudVideos</code> parameter. This API method only shows videos if you have saved videos with one of the provided Cloud Backup methods such as Amazon S3, Backblaze B2, and WebDAV.",
                "code":"http://xxx.xxx.xxx.xxx/[API KEY]/cloudVideos/[GROUP KEY]"
            },
            {
                "text":"Zip and download multiple videos",
                "code":"http://xxx.xxx.xxx.xxx/[API KEY]/zipVideos/[GROUP KEY]?videos=[{\"filename\":\"YYYY-MM-DDTHH-mm-ss.mp4\",\"mid\":\"[MONITOR ID]\"},{\"filename\":\"YYYY-MM-DDTHH-mm-ss.mp4\",\"mid\":\"[MONITOR ID]\"}]"
            }
        ]
    },
    {
        "description":"System Triggers",
        "blocks":[
            {
                "text":"FFprobe",
                "info":"Probe a camera URL to get stream specifications.",
                "code":"http://xxx.xxx.xxx.xxx/[API KEY]/probe/[GROUP KEY]?flags=[FLAGS]&url=[CAMERA_CONNECTION_URL]",
                "list":[
                    "<b>[CAMERA_CONNECTION_URL]</b> : An example of a connection url is as follows <code>rtsp://CAMERA_CONNECTION_URL:554/</code>. This url can vary with different camera brands and models.",
                    "<b>[FLAGS]</b> : You can put <code>default</code> to automatically put <code>-v quiet -print_format json -show_format -show_streams</code>."
                ]
            },
            {
                "text":"Brute Protection Lock Reset",
                "code":"http://xxx.xxx.xxx.xxx/[API KEY]/resetBruteProtection/[GROUP KEY]"
            }
        ]
    },
    {
        "description":"Monitor Triggers",
        "blocks":[
            {
                "text":"Control - Point Tilt Zoom (PTZ)",
                "info":"<code>[ACTION]</code> is the action in which you want to run. See below for a list of available actions.",
                "code":"http://xxx.xxx.xxx.xxx/[API KEY]/control/[GROUP KEY]/[MONITOR ID]/[ACTION]",
                "list":[
                    "center",
                    "up",
                    "down",
                    "left",
                    "right",
                    "enable_nv",
                    "disable_nv",
                    "zoom_in",
                    "zoom_out"
                ]
            },
            {
                "text":"Trigger a Motion Event",
                "info":"This is a way to trigger the Motion Engine through a GET request.",
                "code":"http://xxx.xxx.xxx.xxx/[API KEY]/motion/[GROUP KEY]/[MONITOR ID]?data={\"plug\":\"<i>camera1</i>\",\"name\":\"<i>stairs</i>\",\"reason\":\"<i>motion</i>\",\"confidence\":<i>197.4755859375</i>}",
                "list":[
                    "<b>plug :</b> The name of the plugin. You can put the name of the camera.",
                    "<b>name :</b> The name of the region. <small>Example : door</small>",
                    "<b>reason :</b> The reason for this trigger. <small>Example : motion</small>",
                    "<b>confidence :</b> A number to signify how much confidence this engine has that there is motion. <small>Example : 197.4755859375</small>"
                ]
            },
            {
                "text":"Webhook Test on monitor",
                "info":"Use this to help you test webhook usability of an external script.",
                "code":"http://xxx.xxx.xxx.xxx/[API KEY]/hookTester/[GROUP KEY]/[MONITOR ID]"
            },
            {
                "text":"Set to a mode for a monitor.",
                "code":"http://xxx.xxx.xxx.xxx/[API KEY]/monitor/[GROUP KEY]/[MONITOR ID]/[MODE]"
            },
            {
                "text":"[MODE]</strong> can be one of the following.",
                "list":[
                    "stop, start, record",
                    "stop = Disabled",
                    "start = Watch-Only",
                    "record = Record"
                ]
            },
            {
                "text":"Set to a mode for a number of minutes to elapse before automatically stops.",
                "code":"http://xxx.xxx.xxx.xxx/[API KEY]/monitor/[GROUP KEY]/[MONITOR ID]/[MODE]/[TIME]"
            },
            {
                "text":"Set to a mode for a period of time before automatically stops.",
                "code":"http://xxx.xxx.xxx.xxx/[API KEY]/monitor/[GROUP KEY]/[MONITOR ID]/[MODE]/[TIME]/[TIME INTERVAL]"
            },
            {
                "text":"Here is an example of setting the mode to <strong>record</strong> on a camera with ID <strong>bunny</strong> under group key <strong>2Df5hBE</strong>. It will stay in this mode until changed.",
                "code":"http://xxx.xxx.xxx.xxx/XXXXXXXXXXXXXXXXX/monitor/2Df5hBE/bunny/record"
            },
            {
                "text":"Setting the mode to <strong>record</strong> on a camera with ID <strong>bunny</strong> for <strong>10 minutes</strong> under group key <strong>2Df5hBE</strong>. It will automatically return to <strong>Disabled</strong> itself after <strong>10 minutes</strong>.",
                "code":"http://xxx.xxx.xxx.xxx/XXXXXXXXXXXXXXXXX/monitor/2Df5hBE/bunny/record/10/min"
            },
            {
                "text":"[TIME INTERVAL]</strong> can be left blank to use <strong>seconds</strong> or one of the following.",
                "code":"min, minute, minutes, hr, hour, hours, day, or days"
            }
        ]
    },
    {
        "description":"Monitor States (Preset Configurations)",
        "blocks":[
            {
                "info":"Monitor States are Presets that allow you to modify multiple monitors at once. This functionality is similar to ZoneMinder's \"Alarm States\"."
            },
            {
                "text":"Getting All Saved Monitor States",
                "code":"http://xxx.xxx.xxx.xxx/[API KEY]/monitorStates/[GROUP KEY]"
            },
            {
                "text":"Insert a Monitor States Preset",
                "info":"Only the values that you provide are changed. You can export your Monitor to get a list of possible choices.",
                "blocks":[
                    {
                        "text":"The <code>data</code> query string needs to contain the <code>monitors</code> array. In this array you can place any set of configurations to change for your monitors.",
                        "code":"http://xxx.xxx.xxx.xxx/[API KEY]/monitorStates/[GROUP KEY]/[PRESET_NAME]/insert?data={\"monitors\":[]}"
                    },
                    {
                        "text":"Example of setting one monitor to Disabled and with the Detector Engine off.",
                        "code":"http://xxx.xxx.xxx.xxx/[API KEY]/monitorStates/[GROUP KEY]/[PRESET_NAME]/insert?data={\"monitors\":[{\"mid\":\"[MONITOR_ID_1]\",\"mode\":\"stop\",\"details\":{\"detector\":\"0\"}}]}"
                    },
                    {
                        "text":"Example of setting one monitor to Watch-Only and with the Detector Engine on.",
                        "code":"http://xxx.xxx.xxx.xxx/[API KEY]/monitorStates/[GROUP KEY]/[PRESET_NAME]/insert?data={\"monitors\":[{\"mid\":\"[MONITOR_ID_1]\",\"mode\":\"start\",\"details\":{\"detector\":\"1\"}}]}"
                    }
                ]
            },
            {
                "text":"Delete Monitor States Preset",
                "code":"http://xxx.xxx.xxx.xxx/[API KEY]/monitorStates/[GROUP KEY]/[PRESET_NAME]/delete"
            },
            {
                "text":"Activate Monitor States Preset",
                "code":"http://xxx.xxx.xxx.xxx/[API KEY]/monitorStates/[GROUP KEY]/[PRESET_NAME]"
            }
        ]
    },
    {
        "description":"Scheduling for Monitors",
        "blocks":[
            {
                "info":"Scheduling for Monitors allows you to manage multiple monitor's settings together based on time. This feature works in conjunction with <b>Monitor States</b>"
            },
            {
                "text":"Getting All Saved Schedules",
                "code":"http://xxx.xxx.xxx.xxx/[API KEY]/schedule/[GROUP KEY]"
            },
            {
                "text":"Getting a Specific Schedule",
                "code":"http://xxx.xxx.xxx.xxx/[API KEY]/schedule/[GROUP KEY]/[SCHEDULE_NAME]"
            },
            {
                "text":"Insert a Schedule",
                "info":"The <code>data</code> query string needs to contain the <code>start</code>, <code>end</code>, <code>enabled</code>, and <code>monitorsStates</code> array. Running an <b>Insert</b> action will modify any existing with the same name.",
                "blocks":[
                    {
                        "code":"http://xxx.xxx.xxx.xxx/[API KEY]/schedule/[GROUP KEY]/[SCHEDULE_NAME]/insert?data={...}",
                        "blocks":[
                            {
                                "info":"Example of <code>data</code> form structure can be seen below",
                                "json":{
                                    "start": "[HH:mm]",
                                    "end": "[HH:mm]",
                                    "details": {
                                        "monitorStates": [
                                            "[PRESET_NAME]",
                                            "[PRESET_NAME]",
                                            "[PRESET_NAME]"
                                        ]
                                    },
                                    "enabled": 1
                                }
                            },
                            {
                                "info":"Here is an example of a Schedule that starts at 10:00 AM and ends at 9:00 PM. It will activate a Monitor State Preset named <b>detectorsOn</b>. With the <code>enabled</code> variable set to <code>1</code>, which means yes.",
                                "json": {
                                    "start": "10:00",
                                    "end": "21:00",
                                    "details": {
                                        "monitorStates": [
                                            "detectorsOn"
                                        ]
                                    },
                                    "enabled": 1
                                }
                            }
                        ]
                    }
                ]
            },
            {
                "text":"Delete a Schedule",
                "info":"Deleting a Schedule does not revert the changes of a schedule that has already activated.",
                "code":"http://xxx.xxx.xxx.xxx/[API KEY]/schedule/[GROUP KEY]/[SCHEDULE_NAME]/delete"
            }
        ]
    },
    {
        "description":"Modifying a Video or Deleting it",
        "blocks":[
            {
                "text":"Delete a video",
                "code":"http://xxx.xxx.xxx.xxx/[API KEY]/videos/[GROUP KEY]/[MONITOR ID]/[FILENAME]/delete"
            },
            {
                "text":"Mark as Unread",
                "code":"http://xxx.xxx.xxx.xxx/[API KEY]/videos/[GROUP KEY]/[MONITOR ID]/[FILENAME]/status/1"
            },
            {
                "text":"Mark as Read",
                "code":"http://xxx.xxx.xxx.xxx/[API KEY]/videos/[GROUP KEY]/[MONITOR ID]/[FILENAME]/status/2"
            }
        ]
    },
    {
        "description":"Managing API Keys",
        "blocks":[
            {
                "text":"Add an API Key",
                "info":"The created key is binded to the user who created it.",
                "code":"http://xxx.xxx.xxx.xxx/[API KEY]/api/[GROUP KEY]/add?data={}",
                "blocks":[
                    {
                        "text":"Add an API Key : Sample of Post Data",
                        "info":"The contents of <code>details</code> can vary based on version used.",
                        "json":{
                            "data": {
                                "ip": "[IP ADDRESS]",
                                "details": {
                                    "auth_socket": "1",
                                    "get_monitors": "1",
                                    "control_monitors": "1",
                                    "get_logs": "1",
                                    "watch_stream": "1",
                                    "watch_snapshot": "1",
                                    "watch_videos": "1",
                                    "delete_videos": "1"
                                }
                            }
                        }
                    }
                ]
            },
            {
                "text":"Delete an API Key",
                "code":"http://xxx.xxx.xxx.xxx/[API KEY]/api/[GROUP KEY]/delete?data={}",
                "blocks":[
                    {
                        "text":"Delete an API Key : Sample of Post Data",
                        "json":{
                            "data": {
                                "code": "[API KEY]"
                            }
                        }
                    }
                ]
            },
            {
                "text":"Get API Keys",
                "code":"http://xxx.xxx.xxx.xxx/[API KEY]/api/[GROUP KEY]/list"
            }
        ]
    },
    {
        "description":"Administrator Only",
        "blocks":[
            {
                "text":"Register Sub-Account",
                "info":"A Sub-Account is an account that has limited privileges to the Administrator's Monitors, Videos, Events, and Logs.",
                "code":"http://xxx.xxx.xxx.xxx/admin/[API KEY]/accounts/[GROUP KEY]/register?data={}",
                "blocks":[
                    {
                        "text":"Edit Sub-Account : Sample of Post Data",
                        "json":{
                            "data": {
                               "mail": "[SUB-ACCOUNT LOGIN ADDRESS]",
                               "pass": "[SUB-ACCOUNT PASSWORD]",
                               "password_again": "[SUB-ACCOUNT PASSWORD]"
                            }
                        }
                    }
                ]
            },
            {
                "text":"Edit Sub-Account",
                "info":"With this call you can modify permissions for the specified Sub-Account.",
                "code":"http://xxx.xxx.xxx.xxx/admin/[API KEY]/accounts/[GROUP KEY]/edit?uid=[USER ID]&mail=[LOGIN ADDRESS]&data={}",
                "blocks":[
                    {
                        "text":"Edit Sub-Account : Sample of Post Data",
                        "info":"The contents of <code>details</code> can vary based on version used.",
                        "json":{
                            "uid": "[SUB-ACCOUNT USER ID]",
                            "mail": "[SUB-ACCOUNT LOGIN ADDRESS]",
                            "data": {
                               "details": {
                                   "sub": "1",
                                   "allmonitors": "1"
                                }
                            }
                        }
                    }
                ]
            },
            {
                "text":"Delete Sub-Account",
                "info":"With this call you can remove a Sub-Account and their associated API Keys.",
                "code":"http://xxx.xxx.xxx.xxx/admin/[API KEY]/accounts/[GROUP KEY]/delete?uid=[USER ID]&mail=[LOGIN ADDRESS]",
                "blocks":[
                    {
                        "text":"Delete Sub-Account : Sample of Post Data",
                        "json":{
                            "uid" : "[SUB-ACCOUNT USER ID]",
                            "mail" : "[SUB-ACCOUNT LOGIN ADDRESS]"
                        }
                    }
                ]
            }
        ]
    },
    {
        "description":"Superuser Only",
        "blocks":[
            {
                "info":"This user is the highest level user in the Shinobi system. It does not manage cameras, it manages Administrators and the system core."
            },
            {
                "text":"Add an API Key for Superuser",
                "info":"Superusers must have their API Keys added explicity to the <code>super.json</code> file located in your Shinobi directory.",
                "blocks":[
                    {
                        "text":"Example of added <code>tokens</code> variable to Superuser object in <code>super.json</code>",
                        "json":[
                            {
                                "mail": "[LOGIN ADDRESS]",
                                "pass": "[PASSWORD]",
                                "tokens":[
                                    "[A USER SPECIFIED API KEY]",
                                    "[ANOTHER USER SPECIFIED API KEY]",
                                    "[ANOTHER USER SPECIFIED API KEY]",
                                    "[ANOTHER USER SPECIFIED API KEY]"
                                ]
                            }
                        ]
                    }
                ]
            },
            {
                "text":"Update Superuser settings",
                "info":"Currently only for updating username and password. Leave the password fields blank to keep the current password and only change the username.",
                "code":"http://xxx.xxx.xxx.xxx/super/[API KEY]/accounts/saveSettings?data={\"mail\":\"[LOGIN ADDRESS]\",\"pass\":\"[NEW_PASSWORD]\",\"pass_again\":\"[NEW_PASSWORD_AGAIN]\"}",
                "blocks":[
                    {
                        "text":"Update Superuser settings : Sample of Post Data",
                        "json":{
                            "data": {
                                "mail": "[LOGIN ADDRESS]",
                                "pass": "[PASSWORD]",
                                "pass_again": "[PASSWORD AGAIN]"
                            }
                        }
                    }
                ]
            },
            {
                "text":"Register Administrator",
                "info":"The only complex part of this registration method is filling the details column. See below for a <b>Sample : </b>Administrator object.",
                "code":"http://xxx.xxx.xxx.xxx/super/[API KEY]/accounts/registerAdmin?data={\"mail\":\"[USERNAME]\",\"pass\":\"[NEW_PASSWORD]\",\"pass_again\":\"[NEW_PASSWORD_AGAIN]\",\"ke\":\"[GROUP KEY]\",\"uid\":\"[USER ID]\",\"details\":\"[USER DETAILS]\"}",
                "blocks":[
                    {
                        "text":"Register Administrator : Sample of Post Data",
                        "info":"The contents of <code>details</code> can vary based on version used.",
                        "json":{
                            "data": {
                                "mail": "[LOGIN ADDRESS]",
                                "ke": "[GROUP KEY]",
                                "pass": "[PASSWORD]",
                                "password_again": "[PASSWORD AGAIN]",
                                "details": {
                                    "factorAuth": "0",
                                    "size": "10000",
                                    "days": "5",
                                    "event_days": "10",
                                    "log_days": "10",
                                    "max_camera": "",
                                    "permissions": "all",
                                    "edit_size": "1",
                                    "edit_days": "1",
                                    "edit_event_days": "1",
                                    "edit_log_days": "1",
                                    "use_admin": "1",
                                    "use_aws_s3": "1",
                                    "use_webdav": "1",
                                    "use_discordbot": "1",
                                    "use_ldap": "1"
                                }
                            }
                        }
                    }
                ]
            },
            {
                "text":"Edit Administrator",
                "info":"Tip : Post data does not have to be in a query string, it can be actual POST data as well.",
                "code":"http://xxx.xxx.xxx.xxx/super/[API KEY]/accounts/editAdmin?data={}&account={}",
                "blocks":[
                    {
                        "text":"Edit Administrator : Sample of Post Data",
                        "info":"The contents of <code>details</code> can vary based on version used.",
                        "json":{
                            "data": {
                                "mail": "[GROUP KEY]",
                                "ke": "[GROUP KEY]",
                                "pass": "[PASSWORD]",
                                "password_again": "[PASSWORD AGAIN]",
                                "details": {
                                    "factorAuth": "0",
                                    "size": "10000",
                                    "days": "5",
                                    "event_days": "10",
                                    "log_days": "10",
                                    "max_camera": "",
                                    "permissions": "all",
                                    "edit_size": "1",
                                    "edit_days": "1",
                                    "edit_event_days": "1",
                                    "edit_log_days": "1",
                                    "use_admin": "1",
                                    "use_aws_s3": "1",
                                    "use_webdav": "1",
                                    "use_discordbot": "1",
                                    "use_ldap": "1"
                                }
                            },
                            "account": {
                                "mail": "[GROUP KEY]",
                                "ke": "[GROUP KEY]",
                                "uid": "[USER ID]"
                            }
                        }
                    }
                ]
            },
            {
                "text":"Delete Administrator",
                "info":"Tip : Post data does not have to be in a query string, it can be actual POST data as well.",
                "code":"http://xxx.xxx.xxx.xxx/super/[API KEY]/accounts/deleteAdmin?account={}&deleteSubAccounts=1&deleteMonitors=1&deleteVideos=1&deleteEvents=1",
                "blocks":[
                    {
                        "text":"Delete Administrator : Sample of Post Data",
                        "json":{
                            "account": {
                                "mail": "[LOGIN ADDRESS]",
                                "ke": "[GROUP KEY]",
                                "uid": "[USER ID]"
                            },
                            "deleteSubAccounts": "1",
                            "deleteMonitors": "1",
                            "deleteVideos": "1",
                            "deleteEvents": "1"
                        }
                    }
                ]
            },
            {
                "text":"Get all users registered to the database",
                "info":"This will not list Superusers.",
                "code":"http://xxx.xxx.xxx.xxx/super/[API KEY]/accounts/list"
            },
            {
                "text":"Get all users of a specific type",
                "info":"There are only two types to request. See below for choices.",
                "code":"http://xxx.xxx.xxx.xxx/super/[API KEY]/accounts/list/[TYPE]",
                "list":[
                    "admin",
                    "sub"
                ]
            },
            {
                "text":"Get system logs",
                "code":"http://xxx.xxx.xxx.xxx/super/[API KEY]/logs"
            },
            {
                "text":"Delete system logs",
                "code":"http://xxx.xxx.xxx.xxx/super/[API KEY]/logs/delete"
            },
            {
                "text":"Modify Configuration (conf.json)",
                "info":"<code>[CONF.JSON]</code> should be a JSON string of your conf.json file.",
                "code":"http://xxx.xxx.xxx.xxx/super/[API KEY]/system/configure?data=[CONF.JSON]"
            },
            {
                "text":"Update Shinobi",
                "code":"http://xxx.xxx.xxx.xxx/super/[API KEY]/system/update"
            },
            {
                "text":"Restart Shinobi",
                "info":"The <code>[OPTIONS]</code> parameter is to select which script to restart. Available uses are below.",
                "code":"http://xxx.xxx.xxx.xxx/super/[API KEY]/system/restart/[OPTIONS]",
                "list":[
                    "system",
                    "cron"
                ]
            }
        ]
    },
    {
        "description":"Direct Camera Management via ONVIF",
        "blocks":[
            {
                "info":"To get a full list of possible actions and options please refer to <a href=\"https://github.com/futomi/node-onvif\" target=\"_blank\">Futomi's ONVIF Documentiation</a>."
            },
            {
                "text":"Use a basic command",
                "code":"http://xxx.xxx.xxx.xxx/[API KEY]/onvif/[GROUP KEY]/[MONITOR ID]/[ACTION]"
            },
            {
                "text":"Use a service based command",
                "code":"http://xxx.xxx.xxx.xxx/[API KEY]/onvif/[GROUP KEY]/[MONITOR ID]/[SERVICE]/[ACTION]",
                "blocks":[
                    {
                        "text":"Example of <a href=\"https://github.com/futomi/node-onvif#OnvifDevice-ptzMove-method\" target=\"_blank\">ptzMove</a>. You can add options by adding the <code>options</code> query variable.",
                        "code":"http://xxx.xxx.xxx.xxx/XXXXXXXXXXXXXXXXX/onvif/2Df5hBE/bunny/ptzMove?options={\"speed\":{\"x\":1,\"y\":0,\"z\":0},\"timeout\":1}"
                    },
                    {
                        "text":"Example of <a href=\"https://github.com/futomi/node-onvif#OnvifServiceDevice-getCapabilities-method\" target=\"_blank\">device.getCapabilities</a>",
                        "code":"http://xxx.xxx.xxx.xxx/XXXXXXXXXXXXXXXXX/onvif/2Df5hBE/bunny/device/getCapabilities"
                    }
                ]
            }
        ]
    },
    {
        "description":"Add, Edit or Delete a Monitor",
        "blocks":[
            {
                "text":"Configuration of monitors remotely.",
                "code":"http://xxx.xxx.xxx.xxx/[API KEY]/configureMonitor/[GROUP KEY]/[MONITOR ID]/[ACTION*]?data={\"mid\":..}",
                "list":[
                    "<code>[ACTION*]</code> can be set to <code>delete</code> or not used entirely, There are no other options.",
                    "It is not necessary to put the <code>data</code> JSON if you are deleting.",
                    "The act of adding a monitor with an already existing ID will edit the existing monitor.",
                    "For an example of what to put for the <code>data</code> object check out this <a href='https://cdn.shinobi.video/configs/CameraReolink.json'>Sample JSON</a>."
                ]
            }
        ]
    },
    {
        "description":"Embedding Streams",
        "blocks":[
            {
                "text":"Embedding a websocket stream can be done through an iframe or using a GET request. You can even proxy it through another web engine because the embed URL will only start a stream after it gets the websocket library.",
                "code":"http://xxx.xxx.xxx.xxx/[API KEY]/embed/[GROUP KEY]/[MONITOR ID]"
            },
            {
                "text":"You can <code>add jQuery</code> with this method.",
                "code":"http://xxx.xxx.xxx.xxx/[API KEY]/embed/[GROUP KEY]/[MONITOR ID]/jquery"
            },
            {
                "text":"It's good for :",
                "list":[
                    "Direct access from a browser tab.",
                    "In an iframe",
                    "On a page without jQuery"
                ]
            },
            {
                "text":"You can embed with jQuery like this",
                "code":"$.get('http://xxx.xxx.xxx.xxx/[API KEY]/embed/[GROUP KEY]/[MONITOR ID]',function(data){ $('body').append(data) })"
            },
            {
                "text":"You can use it in an iframe like this",
                "code":"&lt;iframe src=\"http://xxx.xxx.xxx.xxx/[API KEY]/embed/[GROUP KEY]/[MONITOR ID]/jquery|fullscreen\"&gt;&lt;/iframe&gt;"
            },
            {
                "text":"other available options are as follows. You must separate them with <code>|</code>",
                "list":[
                    "<b>jquery :</b> this addon adds jquery to the embed page. By default jquery is not loaded in case you have already loaded it where you are embedding the stream.",
                    "<b>fullscreen :</b> This adds CSS rules to fullscreen the stream element. This is good when embedding with an iframe.",
                    "<b>gui :</b> Extra CSS rules are added to display other information the Shinobi engine might have to provide."
                ]
            },
            {
                "text":"You <strong>cannot</strong> use the URL like this",
                "code":"&lt;img src=\"http://xxx.xxx.xxx.xxx/[API KEY]/embed/[GROUP KEY]/[MONITOR ID]\"&gt;"
            },
            {
                "text":"Embedding on WordPress?</strong> You may need to set jQuery like this before the embed code for the feature to work.",
                "code":"$=jQuery"
            }
        ]
    }
]
